Data Journalism with R and the Tidyverse - 15 Mutating data
…
Take a look at the city column in our data.

#View(maryland_ppp)

You’ll notice that there’s a mix of styles: “Baltimore” and “BALTIMORE” for example. R will think those are two different cities, and that will mean that any aggregates we create based on city won’t be accurate.

So how can we fix that? Mutate is not just for math! And a function called str_to_upper that will convert a character column into all uppercase.

maryland_ppp %>%
  mutate(
    upper_city = str_to_upper(city)
) %>% 
   select(city, upper_city, name, amount)

# A tibble: 195,869 × 4
   city             upper_city       name                                 amount
   <chr>            <chr>            <chr>                                 <dbl>
 1 Columbia         COLUMBIA         BAYWOOD HOTELS INC.                  2   e6
 2 Lanham           LANHAM           PARTNERS ELECTRIC SERVICE INC.       1.09e6
 3 Bethesda         BETHESDA         RP3 LLC                              7.88e5
 4 Chevy Chase      CHEVY CHASE      SUSHI KO CHEVY CHASE LLC.            6.56e5
 5 Capitol Heights  CAPITOL HEIGHTS  VILLAGE ACADEMY OF MARYLAND          4.70e5
 6 Brentwood        BRENTWOOD        GOSHEN HOUSE TRADING LLC             3.46e5
 7 Tracys Landing   TRACYS LANDING   WEAVER BOAT WORKS                    3.31e5
 8 Essex            ESSEX            BOBS OVERHEAD DOOR REPAIR AND SERVI… 3.18e5
 9 Annapolis        ANNAPOLIS        PARENTS FOR MONTESSORI EDUCATION INC 2.84e5
10 Prince Frederick PRINCE FREDERICK HARVEST PRINCE FREDERICK LLC         2.42e5
# … with 195,859 more rows
…
We can create a new column that accounts for these possibilities and populate it using mutate and case_when, which is like an if/else statement but for more than two options.

maryland_with_in_out <- maryland_ppp %>%
  mutate(
    in_out = case_when(
        servicing_lender_state == 'NA' ~ "NA",
        servicing_lender_state == 'MD' ~ "IN",
        servicing_lender_state != 'MD' ~ "OUT"
      )
  ) 

maryland_with_in_out %>% 
  select(name, amount, servicing_lender_state, in_out)

# A tibble: 195,869 × 4
   name                                        amount servicing_lender_…¹ in_out
   <chr>                                        <dbl> <chr>               <chr> 
 1 BAYWOOD HOTELS INC.                       2000000  MD                  IN    
 2 PARTNERS ELECTRIC SERVICE INC.            1086257  NY                  OUT   
 3 RP3 LLC                                    787500  VA                  OUT   
 4 SUSHI KO CHEVY CHASE LLC.                  655732  NY                  OUT   
 5 VILLAGE ACADEMY OF MARYLAND                469800  WV                  OUT   
 6 GOSHEN HOUSE TRADING LLC                   346500  NJ                  OUT   
 7 WEAVER BOAT WORKS                          330700  MD                  IN    
 8 BOBS OVERHEAD DOOR REPAIR AND SERVICE INC  317504  MD                  IN    
 9 PARENTS FOR MONTESSORI EDUCATION INC       284185  MD                  IN    
10 HARVEST PRINCE FREDERICK LLC               242094. MO                  OUT   
# … with 195,859 more rows, and abbreviated variable name
#   ¹​servicing_lender_state
…
We can then use our new in_out column in group_by statements to make summarizing easier.

In this case there are no Maryland loans where servicing_lender_state has a value of ‘NA’, but you should never assume that will be the case for a dataset. If you know that the only options are the lender is in Maryland or is outside it, you can rewrite the previous code as an if/else statement:

maryland_with_in_out <- maryland_ppp %>%
  mutate(
    in_out = if_else(
        servicing_lender_state == 'MD', "IN", "OUT"
      )
  )

maryland_with_in_out %>% 
  select(name, amount, servicing_lender_state, in_out)

# A tibble: 195,869 × 4
   name                                        amount servicing_lender_…¹ in_out
   <chr>                                        <dbl> <chr>               <chr> 
 1 BAYWOOD HOTELS INC.                       2000000  MD                  IN    
 2 PARTNERS ELECTRIC SERVICE INC.            1086257  NY                  OUT   
 3 RP3 LLC                                    787500  VA                  OUT   
 4 SUSHI KO CHEVY CHASE LLC.                  655732  NY                  OUT   
 5 VILLAGE ACADEMY OF MARYLAND                469800  WV                  OUT   
 6 GOSHEN HOUSE TRADING LLC                   346500  NJ                  OUT   
 7 WEAVER BOAT WORKS                          330700  MD                  IN    
 8 BOBS OVERHEAD DOOR REPAIR AND SERVICE INC  317504  MD                  IN    
 9 PARENTS FOR MONTESSORI EDUCATION INC       284185  MD                  IN    
10 HARVEST PRINCE FREDERICK LLC               242094. MO                  OUT   
# … with 195,859 more rows, and abbreviated variable name
#   ¹​servicing_lender_state

maryland_with_in_out

# A tibble: 195,869 × 5
   name                                        amount city        servi…¹ in_out
   <chr>                                        <dbl> <chr>       <chr>   <chr> 
 1 BAYWOOD HOTELS INC.                       2000000  Columbia    MD      IN    
 2 PARTNERS ELECTRIC SERVICE INC.            1086257  Lanham      NY      OUT   
 3 RP3 LLC                                    787500  Bethesda    VA      OUT   
 4 SUSHI KO CHEVY CHASE LLC.                  655732  Chevy Chase NY      OUT   
 5 VILLAGE ACADEMY OF MARYLAND                469800  Capitol He… WV      OUT   
 6 GOSHEN HOUSE TRADING LLC                   346500  Brentwood   NJ      OUT   
 7 WEAVER BOAT WORKS                          330700  Tracys Lan… MD      IN    
 8 BOBS OVERHEAD DOOR REPAIR AND SERVICE INC  317504  Essex       MD      IN    
 9 PARENTS FOR MONTESSORI EDUCATION INC       284185  Annapolis   MD      IN    
10 HARVEST PRINCE FREDERICK LLC               242094. Prince Fre… MO      OUT   
# … with 195,859 more rows, and abbreviated variable name
#   ¹​servicing_lender_state
…
